{
  "project_info": {
    "project_number": "649388383721",
    "firebase_url": "https://club-jumbo-94dec.firebaseio.com",
    "project_id": "club-jumbo-94dec",
    "storage_bucket": "club-jumbo-94dec.appspot.com"
  },
  "client": [
    {
      "client_info": {
        "mobilesdk_app_id": "1:649388383721:android:7b97db40f41e6acc",
        "android_client_info": {
          "package_name": "com.clubjumboprivileges.home"
        }
      },
      "oauth_client": [
        {
          "client_id": "649388383721-38labu1l306qh3fj7ilfsdrqtdjm201u.apps.googleusercontent.com",
          "client_type": 3
        }
      ],
      "api_key": [
        {
          "current_key": "AIzaSyCAhsS7ve4FZezD6og-CryHTL6gmcduHes"
        }
      ],
      "services": {
        "analytics_service": {
          "status": 1
        },
        "appinvite_service": {
          "status": 1,
          "other_platform_oauth_client": []
        },
        "ads_service": {
          "status": 2
        }
      }
    }
  ],
  "configuration_version": "1"
}